57
70
94
113
159
180
202
229
277
310
314
336
374
385
410
417
444
453
475
506
510
543
547
576
577
593
601
602
622
638
642
669
683
705
764
772
787
808
828
839
910
940
949
950
993
1044
1112
1141
1150
1182
1187
1192
1197
1199
1208
1248
1255
1256
1262
1277
1286
1315
1409
1428
1448
1474
1489
1492
1498
1514
1515
1538
1548
1558
1570
1583
1638
1663
1669
1688
1689
1696
1698
1702
1717
1721
1760
1763
1769
1775
1784
1801
1824
1826
1829
1845
1848
1863
1864
1893
1896
1923
1932
1940
1958
1985
1998
